part3
…
#yhdistetn tulokset, havainnot ja ennusteet samaan dataframeen
paKor<-left_join(payhd,payhdPred,by=c("grid_id"="grid_id","Yspecies"="Pspecies"))
keep<-c("Yspecies","difPred","difY")
paKor<-paKor[,keep,drop=F]

#lasketaan korrelaatiot
paKor %>%
  group_by(Yspecies) %>%
  dplyr::summarise(pool_pa_change= cor(difPred, difY, use= "na.or.complete"))%T>%
  write.csv('pa_pool50_results.csv',row.names=F)

## # A tibble: 120 x 2
##    Yspecies                   pool_pa_change
##    <chr>                               <dbl>
##  1 Acrocephalus_palustris            0.351  
##  2 Acrocephalus_schoenobaenus        0.264  
##  3 Acrocephalus_scirpaceus          -0.252  
##  4 Actitis_hypoleucos               -0.181  
##  5 Aegithalos_caudatus              -0.0471 
##  6 Alauda_arvensis                  -0.273  
##  7 Anas_crecca                      -0.168  
##  8 Anas_platyrhynchos               -0.00841
##  9 Anser_anser                       0.429  
## 10 Anthus_pratensis                  0.0898 
## # ... with 110 more rows
…
#pa
abuKor<-left_join(payhd,payhdPred,by=c("grid_id"="grid_id","Yspecies"="Pspecies"))
keep<-c("Yspecies","difPred","difY")
abuKor<-abuKor[,keep,drop=F]

abuKor %>%
  group_by(Yspecies) %>%
  dplyr::summarise(pool_abu_change= cor(difPred, difY, use= "na.or.complete"))%T>%
  write.csv('abu_pool50_results.csv',row.names=F)

## # A tibble: 120 x 2
##    Yspecies                   pool_abu_change
##    <chr>                                <dbl>
##  1 Acrocephalus_palustris            -0.219  
##  2 Acrocephalus_schoenobaenus        -0.0600 
##  3 Acrocephalus_scirpaceus           -0.00968
##  4 Actitis_hypoleucos                 0.0798 
##  5 Aegithalos_caudatus                0.646  
##  6 Alauda_arvensis                    0.439  
##  7 Anas_crecca                        0.145  
##  8 Anas_platyrhynchos                 0.232  
##  9 Anser_anser                        0.103  
## 10 Anthus_pratensis                   0.305  
## # ... with 110 more rows

Kuinka moneen havaintopariin poolatut ennustustarkkuudet perustuvat? vielk mukana on lajeja, joista vain muutama havainto?

observations=abuKor %>%
  group_by(Yspecies) %>%
  dplyr::summarise(Ngrid= length(which(!is.na(difPred))))

observations

## # A tibble: 120 x 2
##    Yspecies                   Ngrid
##    <chr>                      <int>
##  1 Acrocephalus_palustris        17
##  2 Acrocephalus_schoenobaenus    14
##  3 Acrocephalus_scirpaceus       30
##  4 Actitis_hypoleucos            37
##  5 Aegithalos_caudatus           14
##  6 Alauda_arvensis               47
##  7 Anas_crecca                   17
##  8 Anas_platyrhynchos            58
##  9 Anser_anser                   21
## 10 Anthus_pratensis              45
## # ... with 110 more rows
…
